
		       Tally Sheet for the votes cast. 
 
   The format is:
       "V: vote 	Login	Name"
 The vote block represents the ranking given to each of the 
 candidates by the voter. 
 -=-=-=-=-=-=-=-=-=-=-=-=-=-=-=-=-=-=-=-=-=-=-=-=-=-=-=-=-=-=-=-=-=-=
 -=-=-=-=-=-=-=-=-=-=-=-=-=-=-=-=-=-=-=-=-=-=-=-=-=-=-=-=-=-=-=-=-=-=

     Option 1--->: Accept amendment
   /  Option 2-->: Further Discussion
   |/
V: 12	          93sam	Steve McIntyre
V: 12	       achernya	Alexander Chernyakhovsky
V: 12	          adamm	Adam Majer
V: 12	            adn	Mohammed Adnène Trojette
V: 12	            aeb	Andreas Bombe
V: 1-	        alessio	Alessio Treglia
V: 12	       amacater	Andrew Martin Adrian Cater
V: 1-	          amaya	Amaya Rodrigo Sastre
V: 12	       ametzler	Andreas Metzler
V: 12	            ana	Ana Guerrero López
V: 12	           andi	Andreas Mundt
V: 12	         ansgar	Ansgar Burchardt
V: 1-	       apollock	Andrew Pollock
V: 12	        aurel32	Aurelien Jarno
V: 12	          aviau	Alexandre Viau
V: 1-	       azekulic	Alen Zekulic
V: 21	       ballombe	Bill Allombert
V: 12	            bap	Barak Pearlmutter
V: 1-	            ben	Benjamin Mesing
V: 1-	           benh	Ben Hutchings
V: 12	           beuc	Sylvain Beucler
V: 12	        bgoglin	Brice Goglin
V: 1-	        bigeasy	Sebastian Siewior
V: 1-	         boutil	Cédric Boutillier
V: 12	        bremner	David Bremner
V: 12	        bubulle	Christian Perrier
V: 12	           bzed	Bernd Zeimetz
V: 1-	       capriott	Andrea Capriotti
V: 12	         carnil	Salvatore Bonaccorso
V: 1-	           cech	Petr Cech
V: 12	         chrism	Christoph Martin
V: 12	      christoph	Christoph Egger
V: 12	       cjwatson	Colin Watson
V: 1-	            ckk	Christian Kastner
V: 1-	         colint	Colin Tuckley
V: 12	         csmall	Craig Small
V: 1-	         czchen	ChangZhuo Chen
V: 12	            dai	Daisuke Higuchi
V: 12	          dannf	Dann Frazier
V: 12	      dktrkranz	Luca Falavigna
V: 12	        dmartin	Dale Martin
V: 12	            dmn	Damyan Ivanov
V: 1-	            dod	Dominique Dumont
V: 12	        dogsleg	Lev Lamberov
V: 1-	            dom	Dominic Hargreaves
V: 12	         ebourg	Emmanuel Bourg
V: 12	           eike	Eike Sauer
V: 1-	         elbrus	Paul Gevers
V: 1-	           eric	Eric Dorland
V: 12	          eriks	Erik Schanze
V: 12	          fabbe	Fabian Fagerholm
V: 12	         fabian	Fabian Greffrath
V: 12	         fgeyer	Felix Geyer
V: 1-	        florian	Florian Ernst
V: 12	         franam	Francesco Namuri
V: 12	       francois	Francois Marier
V: 12	       fsateler	Felipe Sateler
V: 12	         garden	Ludovico Gardenghi
V: 12	 gareuselesinge	Enrico Tassi
V: 12	       georgesk	Georges Khaznadar
V: 1-	          ghedo	Alessandro Ghedini
V: 1-	            gio	Giovanni Mascellani
V: 12	          gismo	Luca Capello
V: 12	          gladk	Anton Gladky
V: 12	       glaubitz	John Paul Adrian Glaubitz
V: 12	         gniibe	NIIBE Yutaka
V: 12	         gregoa	Gregor Herrmann
V: 12	        guillem	Guillem Jover
V: 1-	         gusnan	Andreas Rönnquist
V: 1-	          gwolf	Gunnar Wolf
V: 12	       hartmans	Sam Hartman
V: 12	        helmutg	Helmut Grohne
V: 12	        hertzog	Raphaël Hertzog
V: 12	        hoexter	Sven Hoexter
V: 1-	       holmgren	Magnus Holmgren
V: -1	          horms	Simon Horman
V: 12	            hug	Philipp Hug
V: 12	     hvhaugwitz	Hannes von Haugwitz
V: 12	       ishikawa	Mutsumi Ishikawa
V: 1-	         iustin	Iustin Pop
V: 1-	          ivodd	Ivo De Decker
V: 1-	       iwamatsu	Nobuhiro Iwamatsu
V: 12	            jak	Julian Klode
V: 1-	            jan	Jan Niehusmann
V: 1-	          jandd	Jan Dittberner
V: 12	         jaqque	John Robinson
V: 11	       jcristau	Julien Cristau
V: 1-	            jdg	Julian Gilbey
V: 1-	         jlines	John Lines
V: 12	          jodal	Stein Magnus Jodal
V: 12	        joostvb	Joost van Baal
V: 1-	          jordi	Jordi Mallach
V: 1-	          josch	Johannes Schauer
V: 1-	          jwilk	Jakub Wilk
V: 12	         kartik	Kartik Mistry
V: 12	            kcr	Karl Ramm
V: 12	         khalid	Khalid Aziz
V: 12	       kilobyte	Adam Borowski
V: 12	      kitterman	Scott Kitterman
V: 12	           knok	Takatsugu Nokubi
V: 1-	         kolter	Emmanuel Bouthenot
V: 1-	        larjona	Laura Arjona Reina
V: 12	           lars	Lars Wirzenius
V: 12	            leo	Carsten Leonhardt
V: 12	       lfaraone	Luke Faraone
V: 12	       lisandro	Lisandro Damián Nicanor Pérez Meyer
V: 12	         lkajan	Laszlo Kajan
V: 12	  locutusofborg	Gianfranco Costamagna
V: 12	          lucab	Luca Bruno
V: 12	          lucas	Lucas Nussbaum
V: 1-	            luk	Luk Claes
V: 12	        madduck	Martin Krafft
V: 12	           mafm	Manuel A. Fernandez Montecelo
V: 1-	       malattia	Mattia Dongili
V: 1-	        matthew	Matthew Vernon
V: 1-	         mattia	Mattia Rizzolo
V: 12	           maxy	Maximiliano Curia
V: 1-	          mbuck	Martin Buck
V: 12	          mehdi	Mehdi Dogguy
V: 1-	           mejo	Jonas Meurer
V: 12	            mfv	Matteo Vescovi
V: 1-	          micha	Micha Lenk
V: 12	         midget	Dario Minnucci
V: 12	           mika	Michael Prokop
V: 12	          milan	Milan Kupcevic
V: 12	          mmind	Heiko Stübner
V: 1-	             mt	Michael Tautschnig
V: 12	           myon	Christoph Berg
V: 12	        nicolas	Nicolas Boulenguez
V: 12	          nijel	Michal Cihar
V: 12	         nirgal	Jean-Michel Vourgère
V: 12	        noodles	Jonathan McDowell
V: 12	       nthykier	Niels Thykier
V: 12	           odyx	Didier Raboud
V: 12	          ohura	Makoto OHURA
V: 12	          olasd	Nicolas Dandrimont
V: 12	          osamu	Osamu Aoki
V: 12	         paulvt	Paul van Tilburg
V: 12	          pelle	Per Olofsson
V: 1-	         petere	Peter Eisentraut
V: 1-	          philh	Philip Hands
V: 1-	           pini	Gilles Filippini
V: 12	           pino	Pino Toscano
V: 12	          piotr	Piotr Ożarowski
V: 12	            pjb	Phil Brooke
V: 12	          pkern	Philipp Kern
V: 12	         plessy	Charles Plessy
V: 1-	       preining	Norbert Preining
V: 12	       pvaneynd	Peter Van Eynde
V: 12	            qjb	Jay Berkenbilt
V: 12	            ras	Russell Stuart
V: 12	        rbalint	Balint Reczey
V: 1-	        reichel	Joachim Reichel
V: 12	     rfrancoise	Romain Francoise
V: 1-	        robotux	Thomas Preud'homme
V: 12	         roland	Roland Rosenfeld
V: 12	            rra	Russ Allbery
V: 21	          salve	Davide Salvetti
V: 1-	            seb	Sebastien Delafond
V: 12	      sebastien	Sébastien Villemot
V: 12	             sf	Stefan Fritsch
V: 1-	       sgolovan	Sergei Golovan
V: 1-	          sgran	Stephen Gran
V: 12	         sharky	Jeremy Lainé
V: 12	            sjr	Simon Richter
V: 1-	          skitt	Stephen Kitt
V: 12	          slomo	Sebastian Dröge
V: 12	            smr	Steven Robbins
V: 1-	      sramacher	Sebastian Ramacher
V: 12	            sre	Sebastian Reichel
V: 1-	            ssm	Stig Mathisen
V: 12	       stappers	Geert Stappers
V: 12	       stefanor	Stefano Rivera
V: 1-	         stuart	Stuart Prescott
V: 12	           tach	Taku Yasui
V: 12	         takaki	Takaki Taniguchi
V: 1-	            tao	David Weinehall
V: 12	            tbm	Martin Michlmayr
V: 12	       terceiro	Antonio Terceiro
V: 12	         tfheen	Tollef Fog Heen
V: 12	            thb	Thaddeus Black
V: 12	          thijs	Thijs Kinkhorst
V: 12	         tianon	Tianon Gravi
V: 1-	           tiwe	Timo Weingärtner
V: 12	       tmancill	Tony Mancill
V: 1-	          toddy	Tobias Quathamer
V: 12	          tomfa	Tomas Fasth
V: 1-	           toni	Toni Mueller
V: 12	        treinen	Ralf Treinen
V: 12	          troyh	Troy Heber
V: 1-	       tvainika	Tommi Vainikainen
V: 12	       tvincent	Thomas Vincent
V: 12	          tytso	Theodore Ts'o
V: 12	           ucko	Aaron Ucko
V: 12	       ukleinek	Uwe Kleine-König
V: 12	      ultrotter	Guido Trotter
V: 1-	        vagrant	Vagrant Cascadian
V: 12	        vanicat	Remi Vanicat
V: 12	         vcheng	Vincent Cheng
V: 12	       vdanjean	Vincent Danjean
V: 12	          vicho	Javier Merino Cacho
V: 12	          viiru	Arto Jantunen
V: 12	        vlegout	Vincent Legout
V: 12	         vorlon	Steve Langasek
V: 12	            wdg	Daniel Glassey
V: 12	         weasel	Peter Palfrader
V: 1-	         wijnen	Bas Wijnen
V: 12	         wookey	Wookey
V: 12	         wouter	Wouter Verhelst
V: 12	           wrar	Andrey Rahmatullin
V: 12	           zack	Stefano Zacchiroli
V: 1-	          zobel	Martin Zobel-Helas
